what,kind,bundleId,bundleVersion,description,time
activated,perspective,org.eclipse.jdt.ui,,"org.eclipse.jdt.ui.JavaPerspective",1358502382828
started,bundle,org.eclipse.osgi,3.7.2.v20120110-1415,"org.eclipse.osgi",1358502382828
started,bundle,org.eclipse.equinox.simpleconfigurator,1.0.200.v20110815-1438,"org.eclipse.equinox.simpleconfigurator",1358502382828
started,bundle,com.ibm.icu,4.4.2.v20110823,"com.ibm.icu",1358502382828
started,bundle,org.eclipse.compare.core,3.5.200.I20110208-0800,"org.eclipse.compare.core",1358502382828
started,bundle,org.eclipse.core.contenttype,3.4.100.v20110423-0524,"org.eclipse.core.contenttype",1358502382828
started,bundle,org.eclipse.core.databinding.observable,1.4.0.I20110222-0800,"org.eclipse.core.databinding.observable",1358502382828
started,bundle,org.eclipse.core.expressions,3.4.300.v20110228,"org.eclipse.core.expressions",1358502382828
started,bundle,org.eclipse.core.filebuffers,3.5.200.v20110928-1504,"org.eclipse.core.filebuffers",1358502382828
started,bundle,org.eclipse.core.filesystem,1.3.100.v20110423-0524,"org.eclipse.core.filesystem",1358502382828
started,bundle,org.eclipse.core.jobs,3.5.101.v20120113-1953,"org.eclipse.core.jobs",1358502382843
started,bundle,org.eclipse.core.net,1.2.100.I20110511-0800,"org.eclipse.core.net",1358502382843
started,bundle,org.eclipse.core.resources,3.7.101.v20120125-1505,"org.eclipse.core.resources",1358502382843
started,bundle,org.eclipse.core.runtime,3.7.0.v20110110,"org.eclipse.core.runtime",1358502382843
started,bundle,org.eclipse.core.runtime.compatibility,3.2.100.v20100505,"org.eclipse.core.runtime.compatibility",1358502382843
started,bundle,org.eclipse.core.runtime.compatibility.auth,3.2.200.v20110110,"org.eclipse.core.runtime.compatibility.auth",1358502382843
started,bundle,org.eclipse.core.variables,3.2.500.v20110928-1503,"org.eclipse.core.variables",1358502382859
started,bundle,org.eclipse.debug.core,3.7.1.v20111129-2031,"org.eclipse.debug.core",1358502382859
started,bundle,org.eclipse.epp.mpc.ui,1.1.1.I20110907-0947,"org.eclipse.epp.mpc.ui",1358502382859
started,bundle,org.eclipse.epp.usagedata.gathering,1.3.1.R201106061540,"org.eclipse.epp.usagedata.gathering",1358502382859
started,bundle,org.eclipse.epp.usagedata.recording,1.3.1.R201106061540,"org.eclipse.epp.usagedata.recording",1358502382859
started,bundle,org.eclipse.equinox.app,1.3.100.v20110321,"org.eclipse.equinox.app",1358502382859
started,bundle,org.eclipse.equinox.common,3.6.0.v20110523,"org.eclipse.equinox.common",1358502382859
started,bundle,org.eclipse.equinox.ds,1.3.1.R37x_v20110701,"org.eclipse.equinox.ds",1358502382859
started,bundle,org.eclipse.equinox.event,1.2.100.v20110502,"org.eclipse.equinox.event",1358502382859
started,bundle,org.eclipse.equinox.p2.core,2.1.1.v20120113-1346,"org.eclipse.equinox.p2.core",1358502382859
started,bundle,org.eclipse.equinox.p2.directorywatcher,1.0.300.v20110815-1419,"org.eclipse.equinox.p2.directorywatcher",1358502382859
started,bundle,org.eclipse.equinox.p2.engine,2.1.1.R37x_v20111003,"org.eclipse.equinox.p2.engine",1358502382859
started,bundle,org.eclipse.equinox.p2.metadata,2.1.0.v20110815-1419,"org.eclipse.equinox.p2.metadata",1358502382859
started,bundle,org.eclipse.equinox.p2.metadata.repository,1.2.0.v20110815-1419,"org.eclipse.equinox.p2.metadata.repository",1358502382859
started,bundle,org.eclipse.equinox.p2.operations,2.1.1.R37x_v20111111,"org.eclipse.equinox.p2.operations",1358502382859
started,bundle,org.eclipse.equinox.p2.reconciler.dropins,1.1.100.v20110815-1419,"org.eclipse.equinox.p2.reconciler.dropins",1358502382859
started,bundle,org.eclipse.equinox.p2.repository,2.1.1.v20120113-1346,"org.eclipse.equinox.p2.repository",1358502382859
started,bundle,org.eclipse.equinox.p2.ui.sdk.scheduler,1.0.100.v20110815-1419,"org.eclipse.equinox.p2.ui.sdk.scheduler",1358502382859
started,bundle,org.eclipse.equinox.p2.updatechecker,1.1.200.v20110815-1419,"org.eclipse.equinox.p2.updatechecker",1358502382859
started,bundle,org.eclipse.equinox.preferences,3.4.2.v20120111-2020,"org.eclipse.equinox.preferences",1358502382859
started,bundle,org.eclipse.equinox.registry,3.5.101.R37x_v20110810-1611,"org.eclipse.equinox.registry",1358502382859
started,bundle,org.eclipse.equinox.security,1.1.1.R37x_v20110822-1018,"org.eclipse.equinox.security",1358502382859
started,bundle,org.eclipse.equinox.util,1.0.300.v20110502,"org.eclipse.equinox.util",1358502382859
started,bundle,org.eclipse.help,3.5.100.v20110426,"org.eclipse.help",1358502382859
started,bundle,org.eclipse.jdt.apt.core,3.3.500.v20110420-1015,"org.eclipse.jdt.apt.core",1358502382890
started,bundle,org.eclipse.jdt.apt.pluggable.core,1.0.400.v20110305-1450,"org.eclipse.jdt.apt.pluggable.core",1358502382906
started,bundle,org.eclipse.jdt.core,3.7.3.v20120119-1537,"org.eclipse.jdt.core",1358502382906
started,bundle,org.eclipse.jdt.core.manipulation,1.4.0.v20110928-1453,"org.eclipse.jdt.core.manipulation",1358502382906
started,bundle,org.eclipse.jdt.junit,3.7.0.v20110928-1453,"org.eclipse.jdt.junit",1358502382953
started,bundle,org.eclipse.jdt.launching,3.6.1.v20111006_r372,"org.eclipse.jdt.launching",1358502382953
started,bundle,org.eclipse.jdt.ui,3.7.2.v20120109-1427,"org.eclipse.jdt.ui",1358502382953
started,bundle,org.eclipse.jface,3.7.0.v20110928-1505,"org.eclipse.jface",1358502382953
started,bundle,org.eclipse.jsch.core,1.1.300.I20110514-0800,"org.eclipse.jsch.core",1358502382953
started,bundle,org.eclipse.jst.ws.jaxws.utils,1.0.100.v201201031437,"org.eclipse.jst.ws.jaxws.utils",1358502383000
started,bundle,org.eclipse.ltk.core.refactoring,3.5.201.r372_v20111101-0700,"org.eclipse.ltk.core.refactoring",1358502383000
started,bundle,org.eclipse.ltk.ui.refactoring,3.6.0.v20110928-1453,"org.eclipse.ltk.ui.refactoring",1358502383000
started,bundle,org.eclipse.mylyn.bugzilla.core,3.6.5.v20120123-0100,"org.eclipse.mylyn.bugzilla.core",1358502383000
started,bundle,org.eclipse.mylyn.bugzilla.ui,3.6.0.v20110608-1400,"org.eclipse.mylyn.bugzilla.ui",1358502383000
started,bundle,org.eclipse.mylyn.commons.identity,0.8.0.v20110608-1400,"org.eclipse.mylyn.commons.identity",1358502383000
started,bundle,org.eclipse.mylyn.commons.net,3.6.0.v20110608-1400,"org.eclipse.mylyn.commons.net",1358502383000
started,bundle,org.eclipse.mylyn.commons.ui,3.6.1.v20110720-0100,"org.eclipse.mylyn.commons.ui",1358502383000
started,bundle,org.eclipse.mylyn.context.core,3.6.1.v20110720-0100,"org.eclipse.mylyn.context.core",1358502383000
started,bundle,org.eclipse.mylyn.context.ui,3.6.1.v20120112-0100,"org.eclipse.mylyn.context.ui",1358502383000
started,bundle,org.eclipse.mylyn.monitor.ui,3.6.0.v20110608-1400,"org.eclipse.mylyn.monitor.ui",1358502383000
started,bundle,org.eclipse.mylyn.tasks.ui,3.6.5.v20120215-0100,"org.eclipse.mylyn.tasks.ui",1358502383000
started,bundle,org.eclipse.mylyn.team.ui,3.6.1.v20110825-0100,"org.eclipse.mylyn.team.ui",1358502383093
started,bundle,org.eclipse.pde.launching,3.6.0.v20110506,"org.eclipse.pde.launching",1358502383093
started,bundle,org.eclipse.pde.ui,3.6.100.v20120103_r372,"org.eclipse.pde.ui",1358502383109
started,bundle,org.eclipse.search,3.7.0.v20110928-1504,"org.eclipse.search",1358502383109
started,bundle,org.eclipse.team.core,3.6.0.I20110525-0800,"org.eclipse.team.core",1358502383109
started,bundle,org.eclipse.team.cvs.core,3.3.400.I20110510-0800,"org.eclipse.team.cvs.core",1358502383109
started,bundle,org.eclipse.team.cvs.ui,3.3.401.v20120126-1227,"org.eclipse.team.cvs.ui",1358502383109
started,bundle,org.eclipse.team.ui,3.6.101.R37x_v20111109-0800,"org.eclipse.team.ui",1358502383109
started,bundle,org.eclipse.ui,3.7.0.v20110928-1505,"org.eclipse.ui",1358502383109
started,bundle,org.eclipse.ui.console,3.5.100.v20111007_r372,"org.eclipse.ui.console",1358502383109
started,bundle,org.eclipse.ui.editors,3.7.0.v20110928-1504,"org.eclipse.ui.editors",1358502383109
started,bundle,org.eclipse.ui.forms,3.5.101.v20111011-1919,"org.eclipse.ui.forms",1358502383109
started,bundle,org.eclipse.ui.ide,3.7.0.v20110928-1505,"org.eclipse.ui.ide",1358502383109
started,bundle,org.eclipse.ui.net,1.2.100.v20111208-1155,"org.eclipse.ui.net",1358502383109
started,bundle,org.eclipse.ui.views,3.6.0.v20110928-1505,"org.eclipse.ui.views",1358502383109
started,bundle,org.eclipse.ui.views.log,1.0.200.v20110404,"org.eclipse.ui.views.log",1358502383109
started,bundle,org.eclipse.ui.workbench,3.7.1.v20120104-1859,"org.eclipse.ui.workbench",1358502383109
started,bundle,org.eclipse.ui.workbench.texteditor,3.7.0.v20110928-1504,"org.eclipse.ui.workbench.texteditor",1358502383109
started,bundle,org.eclipse.update.configurator,3.3.100.v20100512,"org.eclipse.update.configurator",1358502383109
started,bundle,org.eclipse.update.core,3.2.500.v20110330,"org.eclipse.update.core",1358502383109
started,bundle,org.eclipse.update.scheduler,3.2.300.v20100512,"org.eclipse.update.scheduler",1358502383109
started,bundle,org.eclipse.wst.common.project.facet.core,1.4.201.v201201101553,"org.eclipse.wst.common.project.facet.core",1358502383109
started,bundle,org.eclipse.wst.web,1.1.501.v201201190400,"org.eclipse.wst.web",1358502383109
started,bundle,com.google.gdt.eclipse.designer,2.5.0.r37x201202061313,"com.google.gdt.eclipse.designer",1358502383109
started,bundle,com.google.gdt.eclipse.designer.GXT,2.5.0.r37x201202061331,"com.google.gdt.eclipse.designer.GXT",1358502383109
started,bundle,com.google.gdt.eclipse.designer.SmartGWT,2.5.0.r37x201202061331,"com.google.gdt.eclipse.designer.SmartGWT",1358502383109
started,bundle,com.google.gdt.eclipse.designer.UiBinder,2.5.0.r37x201202061313,"com.google.gdt.eclipse.designer.UiBinder",1358502383109
started,bundle,com.google.gdt.eclipse.designer.hosted,2.5.0.r37x201202052353,"com.google.gdt.eclipse.designer.hosted",1358502383109
started,bundle,org.eclipse.wb.core,1.3.0.r37x201202052311,"org.eclipse.wb.core",1358502383109
started,bundle,org.eclipse.wb.core.lib,1.3.0.r37x201202052311,"org.eclipse.wb.core.lib",1358502383109
started,bundle,org.eclipse.wb.discovery.core,1.3.0.r37x201202052340,"org.eclipse.wb.discovery.core",1358502383109
started,bundle,org.eclipse.wb.discovery.ui,1.3.0.r37x201202052340,"org.eclipse.wb.discovery.ui",1358502383109
started,bundle,com.google.appengine.eclipse.core,2.6.0.v201205021203-rel-r37,"com.google.appengine.eclipse.core",1358502383109
started,bundle,com.google.gdt.eclipse.appengine.rpc,2.6.0.v201205021203-rel-r37,"com.google.gdt.eclipse.appengine.rpc",1358502383109
started,bundle,com.google.gdt.eclipse.core,2.6.0.v201205021203-rel-r37,"com.google.gdt.eclipse.core",1358502383109
started,bundle,com.google.gdt.eclipse.login,2.6.0.v201205021203-rel-r37,"com.google.gdt.eclipse.login",1358502383109
started,bundle,com.google.gdt.eclipse.managedapis,2.6.0.v201205021203-rel-r37,"com.google.gdt.eclipse.managedapis",1358502383109
started,bundle,com.google.gdt.eclipse.platform.shared,2.6.0.v201205021203-rel-r37,"com.google.gdt.eclipse.platform.shared",1358502383109
started,bundle,com.google.gdt.eclipse.suite.ext,2.6.0.v201205021203-rel-r37,"com.google.gdt.eclipse.suite.ext",1358502383109
started,bundle,com.google.gwt.eclipse.core,2.6.0.v201205021203-rel-r37,"com.google.gwt.eclipse.core",1358502383109
os,sysinfo,,,"win32",1358502383125
arch,sysinfo,,,"x86",1358502383125
ws,sysinfo,,,"win32",1358502383125
locale,sysinfo,,,"sv_SE",1358502383125
processors,sysinfo,,,"4",1358502383125
java.runtime.name,sysinfo,,,"Java(TM) SE Runtime Environment",1358502383125
java.runtime.version,sysinfo,,,"1.6.0_22-b04",1358502383125
java.specification.name,sysinfo,,,"Java Platform API Specification",1358502383125
java.specification.vendor,sysinfo,,,"Sun Microsystems Inc.",1358502383125
java.specification.version,sysinfo,,,"1.6",1358502383125
java.vendor,sysinfo,,,"Sun Microsystems Inc.",1358502383125
java.version,sysinfo,,,"1.6.0_22",1358502383125
java.vm.info,sysinfo,,,"mixed mode, sharing",1358502383125
java.vm.name,sysinfo,,,"Java HotSpot(TM) Client VM",1358502383125
java.vm.specification.name,sysinfo,,,"Java Virtual Machine Specification",1358502383125
java.vm.specification.vendor,sysinfo,,,"Sun Microsystems Inc.",1358502383125
java.vm.specification.version,sysinfo,,,"1.0",1358502383125
java.vm.vendor,sysinfo,,,"Sun Microsystems Inc.",1358502383125
java.vm.version,sysinfo,,,"17.1-b03",1358502383125
activated,view,org.eclipse.jdt.ui,3.7.2.v20120109-1427,"org.eclipse.jdt.ui.PackageExplorer",1358502383625
opened,view,org.eclipse.ui.ide,3.7.0.v20110928-1505,"org.eclipse.ui.views.ProblemView",1358502387546
executed,command,org.eclipse.ui,3.7.0.v20110928-1505,"org.eclipse.ui.file.refresh",1358502389437
started,bundle,org.eclipse.pde.core,3.7.1.v20120103_r372,"org.eclipse.pde.core",1358502389625
deactivated,workbench,org.eclipse.ui.workbench,3.7.1.v20120104-1859,"",1358502389718
started,bundle,org.eclipse.wst.jsdt.core,1.1.102.v201111090634,"org.eclipse.wst.jsdt.core",1358502389765
started,bundle,org.eclipse.wst.server.core,1.1.304.v20120208_1420,"org.eclipse.wst.server.core",1358502389796
activated,workbench,org.eclipse.ui.workbench,3.7.1.v20120104-1859,"",1358502390125
activated,editor,org.eclipse.jdt.ui,3.7.2.v20120109-1427,"org.eclipse.jdt.ui.CompilationUnitEditor",1358502393031
activated,view,org.eclipse.jdt.ui,3.7.2.v20120109-1427,"org.eclipse.jdt.ui.PackageExplorer",1358502464265
started,bundle,org.eclipse.wst.ws.service.policy.ui,1.0.300.v201108240515,"org.eclipse.wst.ws.service.policy.ui",1358502464484
started,bundle,org.eclipse.wst.ws.service.policy,1.0.303.v201009221810,"org.eclipse.wst.ws.service.policy",1358502464484
started,bundle,org.eclipse.wst.command.env,1.0.409.v201004211805,"org.eclipse.wst.command.env",1358502464578
started,bundle,org.eclipse.wst.ws,1.1.203.v201004211805,"org.eclipse.wst.ws",1358502464578
error,log,,,"Could not create action delegate for id: com.google.gdt.eclipse.managedapis.popupMenu.project.apiImportProjectAction",1358502464734
error,log,,,"Internal plug-in action delegate error on creation.",1358502464734
started,bundle,org.eclipse.wst.common.frameworks.ui,1.2.100.v201105122000,"org.eclipse.wst.common.frameworks.ui",1358502464828
started,bundle,org.eclipse.wst.common.core,1.2.0.v200908252030,"org.eclipse.wst.common.core",1358502464843
started,bundle,com.google.gdt.eclipse.designer.gpe,2.5.0.r37x201201030222,"com.google.gdt.eclipse.designer.gpe",1358502465312
started,bundle,com.google.gdt.eclipse.designer.wizards,2.5.0.r37x201202061331,"com.google.gdt.eclipse.designer.wizards",1358502465390
started,bundle,org.eclipse.compare,3.5.202.R37x_v20111109-0800,"org.eclipse.compare",1358502465515
deactivated,workbench,org.eclipse.ui.workbench,3.7.1.v20120104-1859,"",1358502475109
activated,workbench,org.eclipse.ui.workbench,3.7.1.v20120104-1859,"",1358502499375
deactivated,workbench,org.eclipse.ui.workbench,3.7.1.v20120104-1859,"",1358502500359
deactivated,workbench,org.eclipse.ui.workbench,3.7.1.v20120104-1859,"",1358502553015
deactivated,workbench,org.eclipse.ui.workbench,3.7.1.v20120104-1859,"",1358502559578
activated,workbench,org.eclipse.ui.workbench,3.7.1.v20120104-1859,"",1358502559968
deactivated,workbench,org.eclipse.ui.workbench,3.7.1.v20120104-1859,"",1358502565468
activated,workbench,org.eclipse.ui.workbench,3.7.1.v20120104-1859,"",1358502608375
executed,command,org.eclipse.ui,3.7.0.v20110928-1505,"org.eclipse.ui.file.properties",1358502608390
executed,command,org.eclipse.ui,3.7.0.v20110928-1505,"org.eclipse.ui.file.refresh",1358502611421
executed,command,org.eclipse.ui,3.7.0.v20110928-1505,"org.eclipse.ui.file.refresh",1358502614625
executed,command,org.eclipse.ui,3.7.0.v20110928-1505,"org.eclipse.ui.file.refresh",1358502614890
executed,command,org.eclipse.ui,3.7.0.v20110928-1505,"org.eclipse.ui.file.refresh",1358502615125
executed,command,org.eclipse.ui,3.7.0.v20110928-1505,"org.eclipse.ui.file.refresh",1358502615359
executed,command,org.eclipse.ui,3.7.0.v20110928-1505,"org.eclipse.ui.file.refresh",1358502615593
executed,command,org.eclipse.ui,3.7.0.v20110928-1505,"org.eclipse.ui.file.refresh",1358502615843
executed,command,org.eclipse.ui,3.7.0.v20110928-1505,"org.eclipse.ui.file.refresh",1358502616093
executed,command,org.eclipse.ui,3.7.0.v20110928-1505,"org.eclipse.ui.file.refresh",1358502616312
executed,command,org.eclipse.ui,3.7.0.v20110928-1505,"org.eclipse.ui.file.refresh",1358502616578
activated,editor,org.eclipse.jdt.ui,3.7.2.v20120109-1427,"org.eclipse.jdt.ui.CompilationUnitEditor",1358502620312
activated,view,org.eclipse.jdt.ui,3.7.2.v20120109-1427,"org.eclipse.jdt.ui.PackageExplorer",1358502621421
closed,editor,org.eclipse.jdt.ui,3.7.2.v20120109-1427,"org.eclipse.jdt.ui.CompilationUnitEditor",1358502621421
opened,editor,org.eclipse.jdt.ui,3.7.2.v20120109-1427,"org.eclipse.jdt.ui.CompilationUnitEditor",1358502622328
activated,editor,org.eclipse.jdt.ui,3.7.2.v20120109-1427,"org.eclipse.jdt.ui.CompilationUnitEditor",1358502622406
activated,view,org.eclipse.jdt.ui,3.7.2.v20120109-1427,"org.eclipse.jdt.ui.PackageExplorer",1358502624156
deactivated,workbench,org.eclipse.ui.workbench,3.7.1.v20120104-1859,"",1358502629953
started,bundle,org.eclipse.jdt.debug,3.7.1.v20111006_r372,"org.eclipse.jdt.debug",1358502665000
started,bundle,org.eclipse.debug.ui,3.7.102.v20111129-1423_r372,"org.eclipse.debug.ui",1358502665156
started,bundle,org.eclipse.jdt.debug.ui,3.6.1.v20111006_r372,"org.eclipse.jdt.debug.ui",1358502665234
activated,workbench,org.eclipse.ui.workbench,3.7.1.v20120104-1859,"",1358502681734
executed,command,org.eclipse.ui,3.7.0.v20110928-1505,"org.eclipse.ui.file.properties",1358502681750
executed,command,org.eclipse.ui,3.7.0.v20110928-1505,"org.eclipse.ui.file.refresh",1358502688828
started,bundle,org.eclipse.equinox.p2.garbagecollector,1.0.200.v20110815-1419,"org.eclipse.equinox.p2.garbagecollector",1358502690437
started,bundle,org.eclipse.wst.server.ui,1.3.0.v20120210_1439,"org.eclipse.wst.server.ui",1358502691203
deactivated,workbench,org.eclipse.ui.workbench,3.7.1.v20120104-1859,"",1358502701640
started,bundle,com.google.gdt.eclipse.suite,2.6.0.v201205021203-rel-r37,"com.google.gdt.eclipse.suite",1358502705562
activated,workbench,org.eclipse.ui.workbench,3.7.1.v20120104-1859,"",1358502706468
deactivated,workbench,org.eclipse.ui.workbench,3.7.1.v20120104-1859,"",1358502707421
activated,workbench,org.eclipse.ui.workbench,3.7.1.v20120104-1859,"",1358502712921
started,bundle,com.google.gdt.eclipse.maven,2.6.0.v201205021203-rel-r37,"com.google.gdt.eclipse.maven",1358502713171
activated,view,org.eclipse.ui.console,3.5.100.v20111007_r372,"org.eclipse.ui.console.ConsoleView",1358502714906
opened,editor,org.eclipse.jdt.ui,3.7.2.v20120109-1427,"org.eclipse.jdt.ui.ClassFileEditor",1358502727593
activated,editor,org.eclipse.jdt.ui,3.7.2.v20120109-1427,"org.eclipse.jdt.ui.ClassFileEditor",1358502727734
activated,editor,org.eclipse.jdt.ui,3.7.2.v20120109-1427,"org.eclipse.jdt.ui.CompilationUnitEditor",1358502729531
executed,command,org.eclipse.ui,3.7.0.v20110928-1505,"org.eclipse.ui.navigate.backwardHistory",1358502729546
started,bundle,org.eclipse.wb.os,1.3.0.r37x201202052311,"org.eclipse.wb.os",1358502734625
started,bundle,org.eclipse.wb.os.win32,1.3.0.r37x201202052311,"org.eclipse.wb.os.win32",1358502734625
activated,view,org.eclipse.ui.console,3.5.100.v20111007_r372,"org.eclipse.ui.console.ConsoleView",1358502742687
activated,editor,org.eclipse.jdt.ui,3.7.2.v20120109-1427,"org.eclipse.jdt.ui.CompilationUnitEditor",1358502751171
activated,view,org.eclipse.jdt.ui,3.7.2.v20120109-1427,"org.eclipse.jdt.ui.PackageExplorer",1358502758921
activated,editor,org.eclipse.jdt.ui,3.7.2.v20120109-1427,"org.eclipse.jdt.ui.CompilationUnitEditor",1358502773218
activated,view,org.eclipse.jdt.ui,3.7.2.v20120109-1427,"org.eclipse.jdt.ui.PackageExplorer",1358502785109
activated,editor,org.eclipse.jdt.ui,3.7.2.v20120109-1427,"org.eclipse.jdt.ui.CompilationUnitEditor",1358502797796
activated,view,org.eclipse.jdt.ui,3.7.2.v20120109-1427,"org.eclipse.jdt.ui.PackageExplorer",1358502801421
activated,editor,org.eclipse.jdt.ui,3.7.2.v20120109-1427,"org.eclipse.jdt.ui.CompilationUnitEditor",1358502803468
executed,command,,,"AUTOGEN:::org.eclipse.jdt.internal.ui.CompilationUnitEditor.ruler.actions/org.eclipse.jdt.internal.ui.javaeditor.JavaSelectRulerAction",1358502805250
deactivated,workbench,org.eclipse.ui.workbench,3.7.1.v20120104-1859,"",1358502808875
activated,workbench,org.eclipse.ui.workbench,3.7.1.v20120104-1859,"",1358502809156
started,bundle,org.eclipse.wst.common.frameworks,1.2.102.v201201190400,"org.eclipse.wst.common.frameworks",1358502809500
started,bundle,org.eclipse.emf.common,2.7.0.v20120127-1122,"org.eclipse.emf.common",1358502809515
started,bundle,org.eclipse.wst.common.emf,1.2.100.v201101101900,"org.eclipse.wst.common.emf",1358502809546
started,bundle,org.eclipse.emf.ecore,2.7.0.v20120127-1122,"org.eclipse.emf.ecore",1358502809609
started,bundle,org.eclipse.jem.util,2.1.100.v201103021400,"org.eclipse.jem.util",1358502809625
started,bundle,org.eclipse.emf.ecore.xmi,2.7.0.v20120127-1122,"org.eclipse.emf.ecore.xmi",1358502809640
started,bundle,org.eclipse.wst.common.emfworkbench.integration,1.2.101.v201107140600,"org.eclipse.wst.common.emfworkbench.integration",1358502809640
started,bundle,org.eclipse.wst.common.modulecore,1.2.103.v201201190400,"org.eclipse.wst.common.modulecore",1358502809703
started,bundle,org.eclipse.jst.common.project.facet.core,1.4.200.v201103170302,"org.eclipse.jst.common.project.facet.core",1358502810046
started,bundle,org.eclipse.jst.ws.jaxrs.core,1.0.301.v201108240656,"org.eclipse.jst.ws.jaxrs.core",1358502810062
executed,command,org.eclipse.jdt.ui,3.7.2.v20120109-1427,"org.eclipse.jdt.ui.edit.text.java.toggle.comment",1358502837390
started,bundle,org.eclipse.mylyn.java.tasks,3.6.0.v20110608-1400,"org.eclipse.mylyn.java.tasks",1358502837703
executed,command,org.eclipse.ui,3.7.0.v20110928-1505,"org.eclipse.ui.file.save",1358502837937
activated,view,org.eclipse.ui.console,3.5.100.v20111007_r372,"org.eclipse.ui.console.ConsoleView",1358502839921
activated,view,org.eclipse.jdt.ui,3.7.2.v20120109-1427,"org.eclipse.jdt.ui.PackageExplorer",1358502844312
opened,editor,org.eclipse.jdt.ui,3.7.2.v20120109-1427,"org.eclipse.jdt.ui.CompilationUnitEditor",1358502844718
activated,editor,org.eclipse.jdt.ui,3.7.2.v20120109-1427,"org.eclipse.jdt.ui.CompilationUnitEditor",1358502844781
activated,editor,org.eclipse.jdt.ui,3.7.2.v20120109-1427,"org.eclipse.jdt.ui.CompilationUnitEditor",1358502851093
closed,editor,org.eclipse.jdt.ui,3.7.2.v20120109-1427,"org.eclipse.jdt.ui.CompilationUnitEditor",1358502851093
deactivated,workbench,org.eclipse.ui.workbench,3.7.1.v20120104-1859,"",1358502866796
deactivated,workbench,org.eclipse.ui.workbench,3.7.1.v20120104-1859,"",1358502866890
activated,workbench,org.eclipse.ui.workbench,3.7.1.v20120104-1859,"",1358502896656
activated,view,org.eclipse.ui.console,3.5.100.v20111007_r372,"org.eclipse.ui.console.ConsoleView",1358502897125
executed,command,org.eclipse.ui,3.7.0.v20110928-1505,"org.eclipse.ui.edit.copy",1358502901921
deactivated,workbench,org.eclipse.ui.workbench,3.7.1.v20120104-1859,"",1358502902390
activated,workbench,org.eclipse.ui.workbench,3.7.1.v20120104-1859,"",1358502902390
deactivated,workbench,org.eclipse.ui.workbench,3.7.1.v20120104-1859,"",1358502902468
activated,workbench,org.eclipse.ui.workbench,3.7.1.v20120104-1859,"",1358502918031
deactivated,workbench,org.eclipse.ui.workbench,3.7.1.v20120104-1859,"",1358502919937
activated,workbench,org.eclipse.ui.workbench,3.7.1.v20120104-1859,"",1358502919937
deactivated,workbench,org.eclipse.ui.workbench,3.7.1.v20120104-1859,"",1358502920109
activated,workbench,org.eclipse.ui.workbench,3.7.1.v20120104-1859,"",1358502948140
deactivated,workbench,org.eclipse.ui.workbench,3.7.1.v20120104-1859,"",1358502952171
activated,workbench,org.eclipse.ui.workbench,3.7.1.v20120104-1859,"",1358502952171
deactivated,workbench,org.eclipse.ui.workbench,3.7.1.v20120104-1859,"",1358502952281
activated,workbench,org.eclipse.ui.workbench,3.7.1.v20120104-1859,"",1358503034265
activated,view,org.eclipse.jdt.ui,3.7.2.v20120109-1427,"org.eclipse.jdt.ui.PackageExplorer",1358503035015
deactivated,workbench,org.eclipse.ui.workbench,3.7.1.v20120104-1859,"",1358503046406
activated,workbench,org.eclipse.ui.workbench,3.7.1.v20120104-1859,"",1358503068921
executed,command,org.eclipse.ui,3.7.0.v20110928-1505,"org.eclipse.ui.file.properties",1358503068937
activated,editor,org.eclipse.jdt.ui,3.7.2.v20120109-1427,"org.eclipse.jdt.ui.CompilationUnitEditor",1358503069562
deactivated,workbench,org.eclipse.ui.workbench,3.7.1.v20120104-1859,"",1358503071687
activated,workbench,org.eclipse.ui.workbench,3.7.1.v20120104-1859,"",1358503071687
deactivated,workbench,org.eclipse.ui.workbench,3.7.1.v20120104-1859,"",1358503071843
activated,workbench,org.eclipse.ui.workbench,3.7.1.v20120104-1859,"",1358503192593
deactivated,workbench,org.eclipse.ui.workbench,3.7.1.v20120104-1859,"",1358503195234
activated,workbench,org.eclipse.ui.workbench,3.7.1.v20120104-1859,"",1358503208109
activated,view,org.eclipse.ui.console,3.5.100.v20111007_r372,"org.eclipse.ui.console.ConsoleView",1358503208703
started,bundle,org.eclipse.wst.xsl.debug.ui,1.0.200.v201101281837,"org.eclipse.wst.xsl.debug.ui",1358503209406
deactivated,workbench,org.eclipse.ui.workbench,3.7.1.v20120104-1859,"",1358503213437
deactivated,workbench,org.eclipse.ui.workbench,3.7.1.v20120104-1859,"",1358503213546
