INDEX VERSION 1.126+C:\Users\rasmuse\Documents\Programmering\java\risk\workspace\.metadata\.plugins\org.eclipse.jdt.core
3545310482.index
2238952850.index
3067168268.index
2066398641.index
1669586826.index
548148497.index
3638830766.index
2084622509.index
212292459.index
4266461836.index
1613573400.index
446612977.index
2147789384.index
3389917248.index
4074554315.index
3728045392.index
